804951 684491 504
258121 544167 470
291311 160517 443
453177 65434 449
45228 551675 470
538653 814223 509
702940 676864 442
885724 729788 525
310357 202716 443
104059 11509 351
9628 462652 449
174148 611423 470
657905 164828 509
143649 321807 443
525184 905035 525
845255 823964 525
291243 340602 384
280782 965038 525
131293 108050 349
927084 574686 525
474235 619924 470
265087 465529 449
246939 958416 525
680940 109025 509
620083 562855 447
552373 663508 509
965558 245548 525
486583 441226 444
540324 924616 525
626742 52096 509
473018 543518 470
418327 22836 449
603624 615607 447
904851 973824 507
956674 549068 525
11138 654182 509
275852 387132 441
547727 371536 470
797760 361336 509
714186 641787 504
574449 104917 470
288240 847446 525
363765 872880 525
382152 179938 443
111323 536391 470
331774 559977 470
739313 992703 525
211953 387150 443
36589 930680 525
543553 950286 525
737924 153277 509
949719 412627 525
342087 596218 470
780980 898748 525
709122 183949 509
176552 367523 443
616712 529176 452
730427 267959 509
328465 596411 470
306317 750740 509
249550 119947 443
662597 555429 509
148446 493566 449
692129 728430 504
937253 713554 525
116040 712437 509
835862 713956 468
85440 733624 509
40794 131987 354
97896 368340 443
213747 739142 509
648521 647160 341
797775 383806 509
91006 428123 449
888653 155353 525
243228 149961 443
375084 38370 443
486566 534605 470
198157 87992 383
580928 436209 470
878060 788260 525
209079 236018 443
849735 717122 525
835497 341138 509
315296 415589 449
39511 379610 443
360585 364183 366
768137 133065 509
817830 450888 509
812252 123603 509
661967 796479 504
326381 219364 443
788639 178701 509
504359 692261 509
224797 738093 509
286902 24744 443
491690 705049 509
680514 206605 509
266429 420939 449
60737 916294 525
941659 132548 525
271363 494911 449
944202 99203 525
83429 242149 443
929409 669444 525
85456 739087 509
113933 488645 449
758543 245265 509
384446 624665 470
80511 542228 470
511259 314288 449
919976 969705 507
110646 534809 470
321857 112116 443
699486 331477 509
696993 114183 509
16526 359656 443
327302 31447 443
85384 796495 509
764563 855506 525
340464 172085 443
567880 150478 470
674242 73946 509
654668 187620 509
945610 69207 525
552663 853599 525
867559 56637 525
963764 106939 525
676579 708301 504
78134 585956 470
928291 933778 370
662248 979626 525
316306 204143 443
55686 356429 443
797676 920205 525
614886 842859 525
820027 781070 468
549591 64840 470
590359 607669 403
95900 992042 525
696781 746501 504
625793 545847 452
416954 29825 449
512408 694299 509
528567 381964 470
954762 229060 525
801242 824935 450
314960 384410 441
355199 160276 443
639055 256955 509
360717 496853 449
203770 127993 383
208076 151383 383
14796 563679 470
236818 566348 470
111559 582823 470
956358 961243 414
30516 244177 443
346974 63648 443
173661 919881 525
852645 28104 525
499527 615432 470
912244 380267 525
128455 910804 525
194276 267561 443
531916 992911 525
576072 989889 525
991326 88710 525
488891 762048 509
608378 591275 403
753768 641202 504
768645 128111 509
783503 399869 509
209233 163793 373
718479 850204 525
693128 822918 504
934658 183353 525
412369 931743 525
710260 351863 509
610507 987759 525
156690 611488 470
316772 606194 470
15912 573675 470
704436 765189 504
656585 935363 525
171999 173899 347
248908 220758 443
379633 727709 509
994023 952533 458
345953 228109 443
412295 336541 449
331176 951220 525
276874 274813 345
704242 729461 504
363474 869817 525
472799 87659 449
780410 175141 509
739103 983822 525
904749 688546 525
756946 333916 509
83542 864028 525
442692 430552 400
870494 242366 525
434569 659779 509
126151 614959 470
120013 294511 443
618925 830069 509
944411 297109 525
114214 473874 449
786765 829966 468
952289 32546 525
862233 466463 525
756050 73787 509
553633 970934 525
692860 666690 442
609901 556169 434
24417 733766 509
776396 896090 525
910511 400319 525
108156 705249 509
479541 157988 449
537503 432408 470
216824 831505 509
261675 608735 470
632916 692714 442
496508 465452 426
73577 723653 509
19478 63446 340
37213 157706 383
247194 597579 470
622908 364520 470
584065 939692 525
500651 273142 449
920928 198026 525
122005 831070 509
829995 586535 509
650273 853218 525
455098 988221 525
648828 88134 509
701001 165876 509
759799 843567 525
1832 424489 449
741694 477831 509
262302 153119 443
859527 246724 525
849543 819951 525
527863 743374 509
914949 719219 525
585133 977144 525
69206 123859 354
198065 924053 525
591828 752644 509
642908 467871 509
424079 359067 449
500041 388623 449
634890 824792 504
395250 88818 443
140835 399206 443
595365 640468 509
22272 664902 509
579196 49895 470
885781 999356 507
7341 685502 509
758102 481042 509
687126 121090 509
851402 743477 525
928771 598928 525
118018 703222 509
493021 317635 449
467049 751913 509
589803 724054 509
60437 663164 509
949427 979207 458
138273 575809 470
156868 631473 509
743488 326655 509
403481 430736 449
402776 790821 509
29535 754286 509
298344 64371 443
562284 557977 359
974031 159494 525
817069 808650 406
992293 335988 525
286290 461057 449
742041 335580 509
947336 449665 525
55540 396913 443
165425 464801 449
700693 713269 504
996515 849470 507
686457 736739 504
707347 456005 509
932436 905598 476
644096 135351 509
950320 972796 458
221017 238608 443
316364 440235 449
335452 813115 509
6078 949005 525
270577 882862 525
111401 168093 383
331169 541783 470
613009 527141 452
799221 699103 504
950105 283869 525
118198 668421 509
268493 440092 449
222139 336508 443
105044 683869 509
208602 771670 509
287330 478309 449
218783 179236 386
658875 63045 509
19393 148914 375
6266 614449 470
341683 94963 443
200108 465705 449
748027 587998 509
465349 568747 470
145071 585657 470
109301 526035 470
191701 48128 383
807412 64226 509
373737 662167 509
175212 240634 443
357361 493898 449
217130 423838 449
751193 48225 509
289004 83592 443
342155 937708 525
791851 967016 525
61558 927990 525
731625 125742 509
797214 23182 509
743033 472781 509
779382 672843 504
996253 815048 525
557899 526262 452
3521 349814 443
250815 332026 407
794012 959722 525
949035 608884 525
881586 929872 476
503186 170230 449
484273 850708 525
993593 45943 525
972817 195568 525
731646 723433 380
23515 24458 282
501231 628411 509
971131 759226 525
491515 853279 525
885174 992325 507
425890 913974 525
576491 771948 509
301047 282586 389
340981 479738 449
606156 618550 447
771713 337715 509
464950 654827 509
423053 407547 449
548703 589464 434
251523 802105 509
685272 9915 509
218836 301962 443
825914 805026 450
780879 471330 509
183880 110839 383
475281 955213 525
908744 29613 525
228891 226412 368
277935 502144 449
32196 688439 509
270515 624347 470
239223 488551 449
528227 600617 452
79859 285996 443
349243 991157 525
620751 937444 525
934880 660657 525
754316 459707 509
469342 962500 525
325190 746626 509
361524 677443 509
926529 588483 525
175461 796023 509
708839 423284 509
887831 692602 525
796857 159863 509
131501 994830 525
666776 648722 442
28002 816722 509
390115 242067 441
679455 809275 504
156842 565486 470
728584 681209 504
36836 475386 449
438876 743102 509
836583 207206 509
928096 416229 525
908203 636556 525
895249 62386 525
573627 442765 470
535713 238265 470
463074 628645 509
856770 382323 525
401816 98523 443
833231 16620 509
296083 700789 509
869183 453838 525
380083 494427 449
495490 902833 525
128080 243495 443
979197 154648 525
873018 795662 525
843330 14428 525
90658 610793 470
330242 61840 443
672889 197269 509
52081 365597 443
627448 95572 509
170680 732681 509
529357 802569 509
98212 511165 449
306441 684432 509
480680 346226 449
793528 597977 509
747858 802946 468
963972 190934 525
88781 405997 443
515608 439824 470
240341 779645 509
862771 36619 525
787004 994600 525
75950 472013 449
620156 536423 452
123948 839940 525
809955 811380 406
801370 111362 509
65655 716489 509
177873 317564 443
663508 85004 509
244131 330419 407
617482 259310 470
598132 471597 470
681393 760217 504
873801 408655 525
958320 67452 525
644182 53231 509
552237 63859 470
250989 230218 443
292399 83309 443
788125 104675 509
525323 571187 452
630997 711922 504
215151 140544 383
204132 457541 449
93332 791370 509
876383 838630 432
374690 860672 525
892620 447721 525
234570 386720 441
712836 136232 509
53299 368731 443
935561 413904 525
322721 147378 443
913588 267470 525
307940 749240 509
463342 699664 509
720270 977624 525
953766 606275 525
190927 733987 509
29061 772422 509
573465 386388 470
443175 70199 449
55018 279866 443
888744 962798 507
95357 293706 443
446956 381938 449
332831 149755 443
7314 356886 443
317113 335078 384
543664 506172 470
798971 727782 468
45062 204262 383
705445 309857 509
97975 84571 333
438520 556544 470
540406 739047 509
124119 379729 443
700696 266550 509
226851 766155 509
28569 704755 509
425622 645766 509
579896 94237 470
50818 409014 443
373304 377730 423
313848 659753 509
462846 281449 449
387033 129197 443
68742 349517 443
114802 920792 525
907600 549003 525
95726 443732 449
961520 496046 525
145452 77753 375
540898 891176 525
828001 102789 509
295093 58710 443
495385 275139 449
487591 409362 449
787197 992469 525
776014 999867 525
270252 142396 443
298704 17138 443
746218 382396 509
259409 954385 525
567223 20108 470
312801 824943 509
660682 806534 504
821568 57443 509
40341 630937 509
550340 495174 470
353603 356856 379
370230 109086 443
4546 820405 509
479981 918461 525
307185 979385 525
793428 798259 468
312922 473317 449
957003 842596 507
570266 409300 470
670078 918658 525
147913 267953 443
246580 703716 509
4637 609213 470
209145 907632 525
748542 677566 504
22076 344020 443
415898 40265 449
228041 313970 443
285670 10688 443
168489 670566 509
385430 670286 509
838608 450339 525
122448 435608 449
73596 741849 509
379405 977856 525
226328 656753 509
325725 188132 443
70709 75811 325
656405 100470 509
844792 856781 419
52754 298820 443
405415 356710 436
710876 85243 509
455168 393805 449
894196 542688 525
692258 742841 504
465048 224986 449
84943 53023 351
671650 899578 525
593116 511499 470
765537 160020 509
738741 785002 468
844011 528646 525
509699 835717 509
516578 455736 470
999527 566717 525
293486 66276 443
396719 315270 441
435797 541271 470
708616 632146 504
198809 156703 370
547475 379929 470
926393 852125 476
50086 464102 449
425642 194551 449
823832 83499 509
685716 891850 525
959326 258687 525
164371 933490 525
692124 204968 509
407808 561576 470
501786 178633 449
103947 615890 470
372385 939514 525
973038 793970 525
879184 374656 525
959587 261339 525
121649 79640 354
864005 330128 525
621859 437599 470
571425 327990 470
399143 51497 443
951456 47278 525
776556 347988 509
525146 894722 525
910803 97823 525
328032 313785 384
14478 321310 443
686749 179048 509
444884 318223 449
24719 314401 443
581186 288757 470
741507 345707 509
78974 244096 443
481348 248715 449
566708 548882 421
519436 85899 470
722240 423250 509
376774 952703 525
884085 48559 525
664865 965227 525
150464 505504 449
29836 790043 509
592308 905439 525
127867 35438 354
96510 411232 449
105941 900048 525
232531 721570 509
283644 300881 389
818197 594294 509
162040 843324 525
691269 478803 509
402431 250852 441
936225 102481 525
791734 101582 509
352035 344476 441
14015 877064 525
238461 746150 509
379979 457397 449
928926 499175 525
476058 682494 509
663843 229397 509
513667 866068 525
323980 206299 443
822777 514941 509
496325 676560 509
589705 412214 470
451357 574072 470
551311 545433 452
833674 888846 525
469906 188169 449
22079 564299 470
726301 986934 525
756389 23069 509
802001 517735 509
482303 931185 525
86847 418124 449
274814 748561 509
206830 603891 470
474927 1334 449
885558 95481 525
849067 86337 525
441444 351631 449
757591 333253 509
283074 280365 358
832571 439744 509
661015 380125 509
436877 661150 509
467961 174607 449
94696 639523 509
612071 2814 470
619531 681251 509
460555 231125 449
414553 405663 449
292508 694383 509
237641 494128 449
326433 985645 525
521524 249434 470
69368 507916 449
777366 961364 525
184725 594536 470
456793 815001 509
982994 850359 507
837613 555076 509
115391 361958 443
851238 102439 525
971229 361377 525
778419 356819 509
488076 518855 470
725371 43258 509
212009 533859 470
428360 146410 449
183637 515982 470
56410 45827 340
328296 472645 449
153095 14839 375
298716 249882 407
617140 803486 509
295623 605781 470
585656 12187 470
385726 695747 509
612286 472981 470
94011 203037 383
909273 246991 525
757280 538744 509
50969 258756 443
372107 434261 449
799692 896517 525
54532 203759 383
600947 622760 447
773317 268603 509
658028 66692 509
382523 822114 509
165591 341499 443
24870 193852 383
188460 348764 443
706995 817556 468
74636 450098 449
623405 814693 509
737179 520795 509
80070 881329 525
908770 668448 525
16468 489348 449
488734 451285 444
807330 574454 509
18613 127304 354
535571 287129 470
394830 999279 525
960068 843416 507
594123 305586 470
338415 839268 525
957088 273447 525
365333 805039 509
968021 642044 525
667983 358304 509
493702 443876 444
669552 990863 525
354056 227683 443
775534 767065 468
342146 891358 525
8764 633185 509
504312 262087 449
276678 768847 509
608645 761693 509
36636 260828 443
435133 27857 449
576622 749754 509
814384 26323 509
93715 455439 449
5663 555059 470
399286 168156 443
559457 958404 525
593783 279032 470
903934 533324 525
381422 63659 443
350264 187446 443
272923 50095 443
154580 893657 525
333827 109337 443
408403 686833 509
225813 857010 525
308197 252267 407
678813 448059 509
499315 774205 509
257654 72858 443
894481 131314 525
351853 456681 449
547024 600463 434
251 709647 509
812452 753705 468
443690 969673 525
318953 865844 525
992834 447977 525
313130 747749 509
617802 832540 509
651238 954659 525
319928 882031 525
343459 20521 443
944452 499515 525
19799 865515 525
113377 392556 443
438938 103782 449
84841 147456 375
182495 595451 470
78891 358869 443
808997 958267 525
603882 156675 470
580017 386145 470
615450 47014 470
371673 917705 525
242559 18777 443
89590 953538 525
830615 710969 468
193984 877765 525
713840 849710 525
330667 939637 525
706724 617446 509
39690 268213 443
657588 957901 525
768698 111707 509
281338 792663 509
220735 64193 386
92857 250537 443
142396 692289 509
180202 739218 509
459334 911184 525
230538 705649 509
179714 79076 383
207878 975627 525
384339 793670 509
67521 618952 470
206991 221065 386
677046 406270 509
237781 267921 407
252027 214977 443
572087 375473 470
967420 117231 525
783736 172467 509
891579 436043 525
25725 67248 340
4080 697515 509
72792 593189 470
420135 926265 525
387895 204035 443
823912 633420 504
821537 461594 509
217092 76508 386
624142 974694 525
443956 965481 525
233720 660803 509
556068 963478 525
352592 556352 470
736534 287055 509
170823 680098 509
322710 343343 384
583166 536485 452
386595 334329 441
991582 187367 525
46384 295141 443
150676 161661 383
589398 528118 452
327141 260873 407
320696 515835 470
619894 110704 470
428454 561654 470
180219 406810 443
469520 795823 509
992354 523030 525
389264 841202 525
416226 238571 449
262467 550476 470
697935 159997 509
336535 815562 509
407320 40264 443
784802 650655 504
7605 107016 354
138554 932782 525
127443 462908 449
870927 67791 525
515464 269064 470
144530 901431 525
73877 317327 443
534252 379611 470
564906 565494 328
721185 610645 509
319328 397593 441
177422 916713 525
863237 163836 525
255200 563305 470
565108 631293 509
102350 112716 354
659697 688003 442
464066 357034 449
69261 159621 383
644083 818430 504
613467 54383 470
665446 620188 509
643376 699710 442
538217 743546 509
369134 931879 525
369200 970843 525
894565 189065 525
371572 611961 470
856346 916521 476
972049 477782 525
108384 223999 386
942260 92005 525
306105 626545 509
920830 78796 525
814852 211546 509
629562 746400 504
956542 565637 525
464142 516536 470
137024 468366 449
26100 916332 525
42478 512782 470
792142 474534 509
394165 199311 443
345519 338262 366
36895 840785 525
811182 614056 509
822323 633593 504
444663 805830 509
95851 891440 525
432229 990911 525
912950 377688 525
353505 336873 441
103577 297262 443
135883 512941 470
185329 15710 383
791870 189078 509
136555 814950 509
776974 985781 525
250419 982129 525
496030 516724 470
360413 737042 509
389021 918155 525
692401 839617 525
726672 321952 509
93618 741797 509
848097 305113 525
107827 781034 509
425308 647838 509
779095 98694 509
765760 883379 525
459511 794696 509
506692 783184 509
586474 456993 470
859186 676646 525
595645 913972 525
36037 261961 443
175852 607202 470
336691 99201 443
999546 138879 525
875307 603125 525
891311 647774 525
130843 919076 525
183268 637095 509
881220 210213 525
940788 848918 507
329208 728296 509
938202 853836 476
901980 482752 525
739634 958183 525
581295 326522 470
107433 163316 383
548715 847914 525
676425 323161 509
472800 891211 525
342358 678460 509
510260 272620 449
982759 226277 525
908905 539133 525
542867 757334 509
416937 683292 509
999063 77490 525
142437 887561 525
312435 209318 443
334771 237727 407
514668 899127 525
444147 360361 449
450059 253404 449
131850 119921 344
484635 520691 470
465617 9923 449
981115 503696 525
298509 675668 509
644586 12819 509
654380 425031 509
873799 419343 525
484609 973873 525
970067 515057 525
541976 452261 470
307041 541942 470
485819 477798 413
402007 857705 525
291684 39413 443
715594 558665 509
417698 268085 449
749762 958837 525
664995 973340 525
950502 873232 507
571806 972520 525
134888 305691 443
491894 611866 470
707671 120844 509
368335 156891 443
673992 941747 525
991036 224821 525
41285 859101 525
429602 949724 525
119702 180491 383
538046 505092 470
81399 592033 470
571160 570129 377
919360 221155 525
543133 423222 470
373477 406517 436
822630 340551 509
452487 935203 525
145004 324151 443
137958 31199 354
260512 842529 525
668684 621962 509
899864 67970 525
