222295 878808 525
426243 869600 525
125660 676468 509
436669 897150 525
538027 954379 525
236180 251637 368
286158 646809 509
71089 316667 443
349440 559989 470
427272 889927 525
662869 730484 504
609315 879236 525
502951 698526 509
716930 951998 525
118146 676088 509
386443 620453 470
647502 653153 385
7207 945380 525
16611 31942 308
301940 646062 509
7329 951835 525
409424 949128 525
403282 707820 509
472528 525055 470
133167 365648 443
164431 211104 373
290695 307323 371
90089 780986 509
80023 259820 443
404586 574041 470
143425 240852 443
749853 832875 468
137956 488172 449
404271 755670 509
127816 618416 470
587202 915104 525
786707 959953 525
380704 777516 509
205689 348954 443
85409 498473 449
519353 799218 509
322156 428703 449
206636 820584 509
285193 517041 470
382102 782477 509
680364 727333 504
530729 773374 509
29936 442314 449
356037 779005 509
306102 363783 441
508863 582619 470
746474 987653 525
35606 184413 383
107237 893400 525
793860 883505 525
7027 694365 509
624755 689770 509
506328 694552 509
428982 446758 400
378995 657860 509
517010 963258 525
157034 767253 509
254042 389492 441
206987 482414 449
359915 823992 509
201310 424556 449
114197 264390 443
204088 812121 509
125082 476521 449
798785 886393 525
596564 611583 403
242058 657617 509
507870 655066 509
514994 645518 509
732418 748173 424
303126 734001 509
376583 456943 449
475754 533330 470
265227 734463 509
151841 976150 525
168500 377079 443
249193 317196 407
266571 573375 470
230401 516484 470
254194 995326 525
715092 718257 380
190979 476173 449
40870 192450 383
193008 848706 525
325986 949589 525
862092 923437 476
191243 966472 525
338960 890534 525
241281 487620 449
91994 975133 525
76301 481179 449
266476 293434 407
426542 810359 509
923239 949929 507
68230 253301 443
566291 833846 509
384071 648618 509
168324 326932 443
278269 849430 525
21606 255839 443
490415 683468 509
695275 789351 504
76289 523942 470
224032 722240 509
95683 349648 443
855821 969394 507
723298 780776 468
94393 277596 443
205776 615850 470
21939 94901 351
251939 840532 525
384773 928160 525
27746 713246 509
418822 435336 418
401590 441343 449
349327 955515 525
17330 369909 443
269348 882906 525
157694 706705 509
174896 680488 509
616580 887470 525
653306 712183 504
389363 886669 525
585852 663508 509
412837 747919 509
359867 855998 525
124827 930746 525
123381 461480 449
140334 634316 509
431173 985375 525
41706 379948 443
207089 272431 443
829933 969122 525
60653 855203 525
252942 310948 407
37999 298330 443
451025 760667 509
756793 920065 525
431617 827937 509
953138 956350 414
368243 802775 509
550682 781993 509
78129 996151 525
586562 786672 509
177571 785081 509
45076 401170 443
434141 552028 470
571822 837157 509
721182 981291 525
191723 859694 525
499839 884769 525
734375 957287 525
250634 794787 509
117761 717731 509
56403 639060 509
431277 470258 444
772199 800384 468
85361 868565 525
279579 331502 389
58482 846085 525
506975 809760 509
543648 950126 525
45091 103919 351
459528 743017 509
178039 480781 449
102990 439398 449
950817 969670 414
678120 990323 525
260661 531530 470
678574 823088 504
405171 900397 525
43801 688489 509
85475 624922 470
589344 664923 509
160670 676240 509
594649 937902 525
364939 529377 470
560251 826524 509
133172 693843 509
89249 568063 470
80522 519770 470
471300 629503 509
302511 439617 449
212108 875850 525
116910 315296 443
491693 668103 509
274821 808948 509
68076 524268 470
147875 922755 525
201042 211318 373
668802 712926 504
927880 953970 507
442759 981513 525
25209 678948 509
15578 138048 354
571931 819126 509
293867 312658 384
182701 563357 470
342074 979782 525
693331 844911 525
174444 781320 509
347792 646377 509
339638 921351 525
745035 888763 525
507788 728494 509
2456 153848 375
223154 492054 449
128796 298049 443
604912 833464 509
536800 684006 509
640624 783859 504
278468 296419 389
154623 708073 509
668504 973195 525
580592 973188 525
624218 827505 509
768924 974640 525
761499 787997 468
191 294528 443
21017 758897 509
516190 669176 509
154247 270522 443
314344 924384 525
801519 909116 525
63708 233664 443
326290 362868 441
365503 631522 509
780064 993100 525
779121 904954 525
47754 107938 354
208118 471562 449
920803 931421 476
769160 778865 437
517206 920734 525
33740 710150 509
222380 826731 509
619224 774478 509
675835 678690 385
143460 262603 443
305340 481692 449
158978 196489 370
365494 883635 525
46728 846114 525
232691 263312 407
317743 322402 371
273350 679137 509
368370 507381 449
311775 346334 441
297142 303993 371
339992 848437 525
33656 798182 509
662111 807969 504
408417 647027 509
665374 878044 525
35248 821552 509
129152 133576 344
170038 724065 509
493264 841771 525
147040 920427 525
340507 644796 509
207842 266684 443
202233 637333 509
620848 675701 509
228720 831216 509
140467 836858 509
14607 397271 443
780756 888062 525
223542 998824 525
167747 711251 509
523010 941607 525
33676 150626 375
305878 974690 525
97139 443122 449
205416 372631 443
242785 843492 525
24150 516236 470
360364 424080 449
23389 852424 525
142737 704814 509
25396 633890 509
390953 594325 470
187919 892268 525
251000 271699 407
89580 635834 509
94216 434457 449
645145 809384 504
33907 631835 509
521376 573837 452
420163 854887 525
152149 387868 443
786669 817444 468
693848 815101 504
113617 856883 525
243561 595412 470
193096 904969 525
70557 831637 509
197194 707436 509
211853 692496 509
326180 353810 441
131673 331919 443
116467 665780 509
194399 301102 443
534604 862132 525
126181 955607 525
234036 858592 525
320140 819433 509
795249 835734 468
418634 731863 509
163999 528891 470
282729 367692 441
308179 884698 525
484162 920838 525
129319 213395 383
129163 643969 509
439979 922923 525
538877 643673 509
50984 471518 449
207267 921592 525
188599 445840 449
991098 994996 365
636671 662119 429
275263 895274 525
27061 831488 509
409226 693942 509
163854 261853 443
44428 203167 383
344449 382735 441
674958 699047 442
323184 509396 449
789063 817159 468
348679 778024 509
510155 884214 525
186407 783135 509
181629 807161 509
505452 619299 470
103528 134103 354
395364 765982 509
825083 881853 525
407697 715151 509
47895 71814 340
534788 873157 525
535077 774531 509
524536 563643 452
73108 234459 443
509452 703379 509
509690 975763 525
248350 270087 407
305617 792339 509
664753 672915 442
87089 772590 509
695794 853483 525
444500 639688 509
642109 969112 525
73586 943210 525
700533 767916 504
63895 123504 354
295130 351501 441
254790 896951 525
70951 164135 383
389192 896046 525
729763 855980 525
434050 436142 356
195207 344966 443
95929 782639 509
841683 967639 507
815941 835744 450
297514 783898 509
218698 537520 470
559460 976365 525
59915 340933 443
172210 982564 525
297357 365697 441
349344 604916 470
127654 487139 449
409767 847783 525
314452 900268 525
336757 888469 525
620483 705116 509
198091 826361 509
306257 310256 371
611300 902874 525
137297 789242 509
89031 668561 509
267125 346904 441
122235 364082 443
215795 236536 443
912407 995833 507
808965 872462 525
367740 544576 470
114033 400383 443
43603 252798 443
245481 634985 509
320459 855627 525
161215 170740 352
288640 295012 358
107311 121536 349
333338 577116 470
941184 996066 458
620072 956417 525
148849 397759 443
320072 502725 449
31824 181130 383
282848 851678 525
109902 622347 470
276743 302608 389
762884 866978 525
14593 799001 509
865811 913036 476
930798 983105 507
602607 696437 509
207364 499935 449
479741 622949 470
143457 694087 509
774089 914549 525
406909 431171 449
523620 873830 525
196399 232596 443
152752 865687 525
741123 989041 525
60236 217195 386
406334 723791 509
122606 200151 383
184425 730314 509
451541 701551 509
159407 910048 525
225817 443591 449
328889 963472 525
425365 823436 509
262407 510655 449
327677 771867 509
139099 793218 509
280263 620890 470
897551 960212 507
48274 758412 509
142796 552968 470
62618 621987 470
611359 944992 525
101005 792931 509
446954 459331 387
745194 996550 525
173215 559326 470
191620 664968 509
713338 735075 411
395694 726807 509
525198 526334 408
50352 606433 470
668217 696348 442
98900 927710 525
55693 101898 351
413105 895023 525
198331 809336 509
90049 686178 509
123529 316935 443
623199 754215 509
796734 798338 375
108131 884950 525
107332 362811 443
757029 963582 525
291368 884364 525
542264 905121 525
416912 493666 444
454304 592523 470
357713 945496 525
386081 644756 509
226018 606417 470
228738 376457 443
427767 990673 525
368422 607324 470
226175 479954 449
247537 377034 441
59733 477633 449
386420 536690 470
835529 879634 525
351229 471873 449
693863 924429 525
485321 893946 525
897731 968444 507
5593 634436 509
435866 458181 400
182329 660791 509
346394 859500 525
354848 732442 509
25252 443018 449
299900 856106 525
316693 518883 470
380637 689210 509
63184 366500 443
126940 789292 509
129050 274238 443
149252 354540 443
122240 836908 509
609680 741239 509
654291 849482 525
209429 799643 509
411026 753051 509
144461 229393 386
789182 822037 468
425716 934339 525
123301 253481 443
362244 784311 509
104266 564119 470
731659 933021 525
481584 956380 525
199262 831191 509
529853 875332 525
170736 414196 449
299216 472272 449
666785 873512 525
530112 969426 525
937784 973844 507
583543 901684 525
547958 880420 525
174227 368661 443
507528 586197 470
461706 953653 525
489714 841619 525
832932 858087 525
610830 832921 509
14125 941929 525
660660 901319 525
8177 567132 470
4541 354324 443
512916 946339 525
305454 459300 449
307925 885879 525
35800 417014 449
688789 733397 504
409888 735940 509
781122 908745 525
29061 550982 470
361478 509193 449
148252 658628 509
422055 524155 470
282500 852551 525
30547 67098 340
102715 280522 443
758953 841361 525
504798 516978 470
195301 919668 525
94276 852388 525
82174 670106 509
78639 799211 509
638408 782369 504
489749 702082 509
603747 694053 509
40284 608822 470
49517 941718 525
132986 828804 509
208164 376474 443
405572 573084 470
454824 495923 444
209448 373624 443
694575 937588 525
16716 103488 351
363563 533297 470
367714 746952 509
19417 485509 449
586631 840047 525
459812 802658 509
151673 809559 509
396740 409715 405
141957 879078 525
369573 714181 509
289792 382508 441
461500 681717 509
671881 769449 504
367861 876860 525
396408 738918 509
121960 449687 449
484588 493313 426
187750 298617 443
923970 953411 507
546196 791505 509
423349 486361 444
655719 688029 442
524644 901004 525
547726 860980 525
16249 432644 449
447212 638656 509
355286 550893 470
472438 612407 470
814109 897326 525
433401 752288 509
828945 993989 525
400527 608508 470
577462 924270 525
288321 734837 509
383279 953298 525
143976 608151 470
251847 916007 525
354990 742465 509
252422 266065 407
399968 820976 509
769529 980086 525
548393 951183 525
8585 160497 383
770157 845200 525
121539 650510 509
5615 783996 509
374108 518936 470
133613 203331 383
756378 757145 362
116445 191684 383
290126 851699 525
436105 992341 525
183379 510663 449
378511 471480 449
612575 624999 447
815815 899935 525
290547 379422 441
369997 378440 423
671965 778861 504
819633 940970 525
253599 741321 509
403948 858093 525
303928 667959 509
671691 729694 504
413973 736050 509
728928 807414 468
195545 467189 449
274177 663520 509
24879 530333 470
256511 359504 441
481346 661793 509
429732 541846 470
81391 827386 509
149266 952302 525
59371 308227 443
291457 979054 525
718009 721653 411
194864 460315 449
362825 802462 509
372808 861498 525
56283 673742 509
285957 826654 509
233570 387256 441
749556 967042 525
163990 756270 509
699775 886699 525
473887 859418 525
38838 612449 470
365630 412051 449
68619 242438 443
34379 146053 375
376916 486708 449
80201 309011 443
248829 262966 363
56346 769047 509
112287 137346 349
136007 257089 443
648893 723288 504
214691 554876 470
38753 309572 443
229235 927396 525
320648 600978 470
304213 787398 509
389561 477365 449
70060 198883 383
589181 867748 525
417266 625923 470
195799 458964 449
771979 923141 525
308433 512689 470
324647 436853 449
279014 722519 509
92845 991329 525
926658 990891 507
431088 637053 509
606399 719221 509
27030 492590 449
139195 756416 509
576680 948625 525
132518 924587 525
584548 879541 525
101257 154552 375
348789 471449 449
2711 442613 449
205590 561374 470
79552 900679 525
276320 915838 525
185765 609332 470
216925 422110 449
248262 771774 509
437526 775082 509
83761 406842 443
236282 277606 407
126257 191883 383
763894 798663 468
309260 758511 509
369231 898002 525
544298 669881 509
354739 644673 509
316476 701026 509
99793 971052 525
388176 661345 509
81708 807202 509
212470 359882 443
81377 538131 470
381550 664933 509
622314 640688 509
101057 949549 525
107164 203419 383
95442 738066 509
264124 647609 509
406091 944103 525
228457 681976 509
617126 749345 509
141674 637356 509
436570 504818 444
4546 378932 443
355451 710161 509
228930 390633 443
51084 304362 443
140849 984236 525
820492 947496 525
528987 687532 509
610157 839086 525
209770 266517 443
742581 965965 525
184779 272915 443
262257 624266 470
419600 793391 509
117118 512040 470
458769 750608 509
326823 722400 509
715130 845589 525
17490 152046 375
579019 840446 525
175887 831088 509
519814 858516 525
6707 243197 443
453995 736589 509
690967 986192 525
230270 487860 449
806798 914180 525
10819 655987 509
275828 416164 449
93224 641272 509
88859 412293 449
349246 910554 525
315308 851571 525
70067 459536 449
108449 743168 509
359909 380576 423
350461 368165 410
368752 614131 470
449334 485125 444
87132 304495 443
409825 990986 525
320937 634315 509
159345 663344 509
115155 733069 509
879201 999704 507
4167 814513 509
15960 943421 525
141912 166871 383
57383 783039 509
80328 294176 443
234323 954009 525
150140 364211 443
726111 804846 468
483633 990090 525
143039 588858 470
469232 512290 470
452887 778148 509
196433 576291 470
867083 930147 476
201933 451484 449
79616 225482 386
254388 767543 509
402221 644632 509
613780 959863 525
198500 814620 509
113821 254264 443
584011 920549 525
555480 833648 509
661144 850100 525
92470 896118 525
159577 865574 525
210500 581075 470
578955 944109 525
216975 250930 443
269030 399993 441
312723 895907 525
536695 966230 525
232338 633717 509
310517 519371 470
78623 440312 449
109984 614241 470
116988 567897 470
883746 899906 445
142518 540672 470
288929 429759 449
104115 967123 525
283125 879389 525
561766 583160 421
593111 987718 525
594559 880678 525
861878 947901 507
714530 855866 525
414732 581761 470
53036 772999 509
271018 803724 509
147440 933323 525
134289 267094 443
340264 662216 509
151633 254468 443
305030 521952 470
656857 935041 525
311292 772210 509
316751 862047 525
71501 537017 470
469509 707803 509
367335 664282 509
484837 842179 525
155087 935101 525
207966 664697 509
317732 603510 470
377899 718835 509
824798 994464 525
118052 599018 470
871684 880014 432
494598 641702 509
103567 441906 449
177306 726393 509
268468 889521 525
54494 85205 351
127007 434188 449
653917 963270 525
353828 389336 436
391566 472885 449
816743 971182 525
172803 927183 525
78329 447753 449
17579 636515 509
349027 847723 525
541060 983789 525
801576 999330 525
409372 759665 509
410544 705663 509
788968 926411 525
278334 533651 470
43341 897903 525
543713 754956 509
64964 997815 525
626891 992064 525
269634 702731 509
202938 998395 525
697616 813655 504
78604 994105 525
501462 863995 525
237498 259904 368
132541 406812 443
551019 624258 447
6715 427075 449
128721 710394 509
202947 273147 443
548864 964642 525
183690 369294 443
229586 504279 449
128566 638398 509
412148 841858 525
62122 451120 449
109754 318859 443
495936 975979 525
355094 829138 509
747193 854327 525
19208 141612 354
78853 838667 525
46115 169962 383
39308 961839 525
860863 919525 476
203557 215562 373
31253 474983 449
849666 942019 507
384694 538244 470
225232 688106 509
265271 908642 525
404483 724905 509
179830 750557 509
569159 713729 509
30965 917592 525
634139 646784 416
776680 811663 468
339075 670860 509
294590 904647 525
514420 867940 525
179617 974134 525
18129 482480 449
346426 737501 509
20404 977193 525
86992 350671 443
374364 761676 509
697963 845571 525
232587 552926 470
169628 627273 509
363405 877529 525
295869 388741 441
371118 468540 449
576024 730375 509
235611 429433 449
619065 901187 525
379925 849642 525
783231 958030 525
162418 920491 525
241981 838122 525
854755 938131 476
271108 624852 470
326463 641353 509
357977 698496 509
211138 653464 509
6933 546410 470
180841 895101 525
44725 815762 509
219843 443379 449
504268 558794 470
220063 279349 443
410278 563378 470
299291 976646 525
211398 545561 470
11612 59981 340
267217 888477 525
251044 649014 509
168056 721773 509
330087 408317 441
52159 476342 449
261355 712877 509
441704 523574 470
163080 722000 509
201434 256773 443
75740 730654 509
569903 942308 525
236738 773725 509
255242 956472 525
574560 667746 509
178941 413567 449
627720 825111 504
841977 915358 476
445130 559723 470
225600 968353 525
2602 494445 449
126875 357778 443
422362 958380 525
39853 519547 470
413226 546775 470
299901 548440 470
237864 676023 509
708366 812707 468
552406 564439 421
297680 687639 509
5847 265805 443
292511 995091 525
227789 895451 525
17314 406655 443
504446 581628 470
531806 940994 525
425115 547550 470
309 794424 509
310341 799972 509
304561 745625 509
289315 478515 449
59238 453240 449
283806 361534 441
531332 903957 525
125594 162794 383
817040 981490 525
80055 812932 509
173658 181788 365
335480 914356 525
175720 812109 509
267843 616164 470
353185 357052 379
171189 367569 443
157280 646636 509
310469 509879 449
819635 981914 525
455273 579768 470
25480 503311 449
171367 980789 525
9808 440605 449
704286 921345 525
783379 852674 525
180332 829530 509
323627 411487 449
835666 861788 525
73970 416508 449
626599 837893 525
234737 520199 470
531520 782999 509
37307 350574 443
331977 546655 470
386207 971226 525
30834 431801 449
31571 633839 509
1034 3129 217
6145 7288 262
6207 6426 200
8270 8797 234
6485 7154 257
8361 9986 260
1496 6689 262
6732 7800 257
2667 6098 238
8478 8776 216
1868 7142 262
659 3945 238
2958 8388 262
3022 3580 199
28 3640 217
6358 6886 244
9810 9957 242
2140 5792 238
4634 6134 236
8816 9873 260
4655 7182 262
577 5279 238
4617 7932 262
5694 8508 262
2005 8925 262
9205 9747 260
7070 7976 252
1948 4626 238
9201 9507 260
3743 8508 262
3375 6924 262
2866 6385 262
6107 9917 262
6336 6986 257
5544 6151 236
3289 6743 262
3491 8157 262
7649 9792 260
1969 6402 262
4512 9881 262
4264 5643 236
1260 3933 238
5825 8607 262
8921 9846 260
436 2598 209
79 9231 262
7993 9206 247
7821 8184 252
5394 8855 262
6197 9998 260
9131 9755 260
6107 9145 262
3220 7032 262
5220 6061 236
6467 6841 244
4991 7544 262
5621 8728 262
4653 9144 262
549 6033 238
2706 5714 238
5156 7139 262
5486 6449 262
2069 5488 238
5951 6861 262
2948 4446 238
671 1636 182
1587 7213 262
3961 5198 215
7482 8081 252
1626 3890 238
7916 8055 252
305 4768 238
7936 9597 260
4514 9178 262
9516 9631 198
2682 8934 262
5065 6018 236
7724 8079 252
5940 9089 262
5645 7700 262
5420 6842 262
246 9279 262
249 3401 217
1237 6775 262
7089 9836 260
3083 3203 199
8416 9452 260
3869 9754 262
2981 4192 238
9849 9931 242
3066 5103 238
8430 9041 247
3784 8768 262
6885 7254 257
358 5641 238
7734 8433 252
1113 6619 262
3418 4587 238
9867 9992 242
4519 7817 262
3767 6009 236
8627 9237 247
9113 9451 260
3225 5809 238
7122 9521 260
2717 6533 262
9964 9973 136
5149 8722 262
244 9972 262
3747 7252 262
6468 8827 257
1543 5353 238
7315 9883 260
645 8631 262
4553 4968 210
8057 8946 234
6604 6989 257
2898 4699 238
1516 6810 262
5435 5800 236
4687 6474 262
2958 4485 238
9865 9986 242
4109 5151 215
4691 8441 262
3460 9157 262
5335 5407 192
2200 4969 238
7450 8709 252
8435 8715 203
8295 9788 260
8050 8749 234
9644 9683 185
680 8918 262
3775 9700 262
62 8809 262
3354 5585 238
1259 9965 262
866 2120 182
3932 5017 215
6817 7940 257
2545 2636 191
266 8412 262
5378 6138 236
3108 8545 262
5143 7740 262
3116 8653 262
7631 8701 252
6469 7292 257
1064 1569 182
8027 9757 260
4546 6713 262
9124 9350 260
8998 9613 260
5330 5908 236
34 5877 238
9858 9930 242
3654 5110 238
8228 8573 234
6972 9370 260
6457 7368 257
1285 8123 262
1381 5807 238
5419 7053 262
190 9814 262
8943 9590 260
3026 7567 262
1874 9145 262
8671 8804 216
3230 4341 238
2285 5810 238
4652 7179 262
3511 9125 262
522 2174 182
3823 6888 262
5119 5958 236
9850 9914 242
6445 9855 260
2421 2573 209
5587 9468 262
5380 5496 192
9919 9949 167
3970 7396 262
939 1101 169
3130 3254 199
910 5058 238
4102 7908 262
8598 9348 260
4151 7829 262
4643 6009 236
244 2822 209
5605 5990 218
4670 9859 262
4380 8114 262
5058 6855 262
5539 6755 262
1238 8369 262
1265 1586 177
9989 9999 180
9975 9980 167
7298 8710 252
491 7774 262
6064 8864 262
7019 7163 195
1879 2246 183
6088 8677 262
5857 7016 262
7459 8700 252
7335 7944 239
4418 6193 262
8569 8784 216
5754 9056 262
4465 5871 236
5118 8375 262
8852 9389 260
5849 9816 262
7089 9482 260
1126 3211 217
1253 5997 238
149 6132 238
6639 6922 226
3155 8090 262
5559 6694 262
508 1284 182
6650 9678 260
8654 9306 260
9475 9966 242
9882 9923 242
7146 8303 252
709 8451 262
1589 5135 238
7106 9059 252
3886 8703 262
5764 8402 262
1191 5755 238
1285 7041 262
6492 9965 260
3809 3912 176
1486 2362 183
4691 6322 262
5868 9691 262
3766 3909 176
2438 4875 238
8971 9005 185
5425 6139 236
6702 8994 257
5772 5950 218
4034 7333 262
4376 6710 262
9214 9667 260
1566 6485 262
1461 7127 262
9085 9771 260
7636 9705 260
8429 9496 260
2621 3522 217
5639 6243 262
9068 9865 260
1752 9879 262
7531 7623 177
8063 8933 234
6006 6154 187
2857 7133 262
9649 9852 211
8080 9766 260
5042 9990 262
2709 4896 238
7049 8708 252
8294 8531 234
9273 9348 185
9125 9680 260
1961 6668 262
6501 7248 257
5591 6367 262
212 5641 238
2807 8748 262
8395 9471 260
7633 9549 260
8253 9059 247
4361 9318 262
6217 7288 257
6262 9061 257
4283 4486 215
862 6272 262
5429 7728 262
7991 9122 247
5734 8291 262
5641 5775 205
9951 9961 92
9097 9167 198
2065 3500 217
9543 9757 198
7843 8936 252
9997 9999 180
5837 6964 262
4190 5571 236
1532 9506 262
2804 5917 238
482 5161 238
4527 5240 210
2794 9142 262
8095 9276 260
2553 3281 217
8267 9920 260
9197 9208 154
2194 8266 262
2281 2962 217
4874 7560 262
1211 5338 238
5856 9403 262
7634 9879 260
8858 9584 260
722 6485 262
9920 9922 136
3593 5347 238
5953 9410 262
9571 9754 198
80 788 171
5852 5950 187
3528 9793 262
2045 7768 262
5115 8428 262
4499 8623 262
3007 9578 262
2734 6989 262
7896 9506 260
2512 8566 262
8800 9468 260
9 4232 238
292 9757 262
3406 8385 262
2826 3916 238
2792 4668 238
8369 8413 159
7012 7493 239
5807 8896 262
559 8753 262
821 8173 262
7665 9759 260
2586 2592 147
3702 9647 262
6699 8190 257
667 2121 182
1502 7029 262
7748 8256 252
2627 7986 262
9186 9554 260
7513 9180 252
5182 9555 262
2453 8102 262
7999 9863 260
6356 6428 200
9792 9841 167
4463 6768 262
7162 9056 252
890 2376 183
3148 4942 238
8466 9130 247
220 5796 238
5658 6646 262
5096 9267 262
4809 5118 210
6470 7823 257
5243 8045 262
2018 9324 262
4501 5920 236
3735 8536 262
1524 6708 262
9584 9820 198
5421 7955 262
8615 9575 260
1294 3970 238
8596 9826 260
1689 3201 217
3973 5373 215
4465 5520 210
1533 7404 262
1587 2981 217
3209 6834 262
9524 9824 198
1550 8795 262
5157 7196 262
9038 9828 260
6441 6876 244
8568 9090 247
5265 6895 262
4482 9889 262
15 2319 183
1229 6791 262
3861 4580 215
4834 8099 262
6884 9850 260
9548 9675 198
7863 8752 252
536 8855 262
3363 4936 238
1732 7193 262
1092 9145 262
1057 1544 182
7545 8793 252
9646 9650 167
1005 7413 262
6239 8656 257
9939 9981 167
4417 6794 262
3473 5889 238
3456 8692 262
5948 6965 262
271 3000 217
9842 9847 74
2941 9899 262
7661 8240 252
5646 7474 262
542 7889 262
7329 9048 252
7240 8238 252
1067 1344 182
4574 7084 262
6980 9535 260
3299 6832 262
5360 9780 262
9217 9508 260
6104 9071 262
3231 8044 262
7635 9701 260
6704 8711 257
7747 9799 260
9455 9562 198
8149 9624 260
3865 4078 189
3002 4335 238
6365 9276 260
4453 7988 262
1455 6252 262
2516 2581 178
7242 8625 252
7077 8457 252
9990 9999 180
7353 8556 252
6911 9886 260
5225 6654 262
132 5391 238
6057 8160 262
6950 8162 252
7212 8320 252
3330 6169 238
6871 6916 182
9970 9999 180
8734 9707 260
1523 2685 209
5453 8218 262
8110 9915 260
1388 7061 262
7379 8899 252
9434 9857 211
7568 9974 260
9110 9911 260
6061 9634 262
9162 9892 260
8811 9762 260
2229 7131 262
2850 3063 217
4294 8359 262
5292 8162 262
9804 9873 211
6013 8310 262
2942 9186 262
8774 9617 260
8999 9167 198
821 8006 262
3989 6560 262
9175 9273 260
5850 6900 262
3078 4294 238
7117 7328 195
1270 5199 238
2710 4413 238
2284 5660 238
4566 5644 236
9911 9945 167
8160 8300 190
959 8413 262
9545 9577 198
7383 9272 260
4948 5653 236
4008 8343 262
5524 8512 262
5558 8422 262
6522 7103 257
8208 9210 247
5752 8901 262
9262 9825 198
9348 9606 198
5879 7829 262
335 4947 238
634 5813 238
6934 7590 257
8315 9933 260
1127 9166 262
5717 7276 262
7462 8294 252
6654 7049 257
4379 5136 215
9424 9884 211
5048 7021 262
8983 9259 260
1136 4120 238
7646 9003 252
1830 8843 262
7652 8357 252
5416 9090 262
4677 6832 262
7913 8420 252
9415 9679 198
2876 3459 217
125 392 144
526 5115 238
9501 9677 198
534 577 137
5942 9056 262
7295 9624 260
2800 3250 217
9014 9031 185
5337 6425 262
6603 7814 257
3724 4271 202
3666 5272 238
590 4690 238
6826 9988 260
7035 9799 260
5338 7660 262
956 2499 209
7802 9805 260
3820 8732 262
3779 9728 262
4768 9784 262
3361 3473 181
4233 5612 236
5783 7697 262
5001 7888 262
1776 5730 238
3768 5292 215
3457 5043 238
7508 7889 221
2736 9289 262
1213 9649 262
2011 6820 262
984 5702 238
9867 9887 242
4351 7624 262
1016 5670 238
9978 9986 167
8448 8964 247
1552 9709 262
7516 9652 260
887 3634 217
4077 8749 262
2610 7509 262
8366 9137 247
5665 6750 262
8997 9896 260
1775 2891 209
3025 3057 155
6620 9137 257
1137 8577 262
6720 6885 182
2501 8271 262
8769 9358 260
151 325 131
9048 9759 260
3325 7713 262
2059 9901 262
7455 9488 260
439 8102 262
7699 8991 252
2512 3154 217
7173 7450 239
7075 7288 195
8528 8848 216
5475 9692 262
3785 5959 236
4586 5481 210
4614 8998 262
760 2279 183
9920 9955 167
5940 8777 262
6683 9504 260
7132 9776 260
398 2322 183
6304 9923 260
3261 9441 262
4012 8358 262
2431 3414 217
5649 7669 262
9341 9668 198
340 9196 262
6215 8564 257
5650 8259 262
7829 8416 252
9980 9981 74
9109 9791 260
7396 9841 260
6535 8592 257
7739 8452 252
7580 9209 252
3118 4509 238
3174 3628 199
3786 8501 262
4097 5930 236
6535 6894 244
2157 3371 217
1644 9194 262
3595 3775 238
551 1879 182
673 4041 238
6672 9354 260
7571 7937 221
9172 9825 260
4213 8185 262
614 9138 262
9975 9998 180
4077 6971 262
9113 9910 260
4649 6438 262
8970 9742 260
2855 6806 262
9480 9591 198
7938 8974 252
7776 8971 252
2263 9289 262
7276 9075 252
5395 9180 262
4383 9835 262
4952 8044 262
9205 9286 260
4206 9349 262
1101 9909 262
9006 9130 185
9231 9751 260
8502 9435 260
5533 8752 262
7624 9537 260
9771 9983 242
4827 6092 236
6294 6855 244
1533 2841 209
8846 8877 172
8310 9599 260
764 803 153
8514 9617 260
8560 9692 260
5947 9507 262
6897 9331 260
8170 9617 260
524 9669 262
9556 9840 198
2814 6088 238
496 7253 262
5818 9124 262
5970 7944 262
6031 9177 262
1422 6745 262
8727 9291 260
8793 8811 141
4927 5159 210
5319 5556 205
1610 1679 180
8101 9540 260
3563 9467 262
9615 9962 242
888 6201 262
3443 6857 262
4595 5907 236
3535 8640 262
5846 7082 262
6602 7255 257
249 9869 262
3507 3908 238
1466 3621 217
7861 8724 252
7777 8223 252
5620 8846 262
6213 6242 187
6494 9689 260
6688 7247 257
7165 9178 252
9521 9601 198
3451 4246 238
8568 9365 260
4208 5090 215
7606 9203 252
5407 9642 262
8904 9070 247
75 428 144
5715 9365 262
4208 9810 262
4962 8268 262
9824 9897 242
8252 9627 260
9416 9447 154
4552 4888 197
3946 9022 262
4587 9697 262
1128 1164 182
8335 9030 247
4446 6546 262
1610 9151 262
5935 9252 262
6102 8504 262
8932 8994 247
70 7008 262
3973 7359 262
7233 9524 260
4230 8871 262
3587 6868 262
1673 9654 262
2646 4594 238
5810 7975 262
6322 7302 257
1751 2580 209
1369 5416 238
3784 4469 215
6335 8752 257
9007 9465 260
8101 8587 234
468 4337 238
6680 6901 182
8989 9704 260
1921 3351 217
2995 5043 238
5688 5822 205
3594 5095 238
3785 5270 215
4391 8579 262
9758 9816 198
2787 3356 217
5064 9989 262
9310 9967 242
3498 4660 238
2380 7886 262
7831 8938 252
2262 8732 262
3418 8805 262
7403 9084 252
3633 7258 262
3514 8529 262
5552 9443 262
9171 9364 260
5569 8932 262
4845 6560 262
5267 8937 262
7145 8384 252
8648 9342 260
1059 3187 217
7502 9895 260
6351 8708 257
187 3657 217
4824 6064 236
336 7103 262
969 1931 182
7707 7755 177
1413 5118 238
7346 9811 260
4244 9481 262
9988 9996 180
2256 7971 262
1634 3675 217
1046 8289 262
8891 9757 260
6037 6253 262
164 9625 262
8876 9612 260
4030 9522 262
91 7284 262
6255 7303 257
4421 7776 262
9446 9737 198
8058 8177 190
2733 9752 262
8813 9482 260
9446 9471 154
5260 9670 262
5385 6389 262
591 4236 238
2707 2927 217
3300 8092 262
5894 7958 262
7382 9279 260
8883 8903 185
643 3918 238
1738 2657 209
2515 3034 217
5745 8934 262
5490 6835 262
8866 8904 185
9911 9993 180
3912 4408 215
8592 9716 260
8596 8642 172
1079 1253 182
6886 8528 257
5813 6740 262
6680 6924 226
2834 7864 262
432 3900 238
9350 9820 198
7484 9569 260
9821 9892 242
4426 9163 262
74 2215 182
7659 8828 252
6183 8728 257
6848 8710 257
718 5133 238
4253 9827 262
9080 9990 260
9772 9934 242
108 9554 262
481 7522 262
2672 3183 217
1247 5342 238
2772 3198 217
2013 8229 262
5771 6755 262
5710 8860 262
6914 7730 257
8711 9479 260
9974 9976 167
2246 3158 217
3300 5517 238
5238 7923 262
1329 9116 262
2428 6041 238
5751 7983 262
6682 8038 257
335 8592 262
7590 8584 252
7312 9182 252
187 2928 217
3122 6008 238
1156 7397 262
3199 4947 238
6056 6297 262
5324 5870 236
1257 4009 238
7425 7823 221
9078 9923 260
4859 5424 210
65 2748 209
4858 6500 262
8293 9246 247
1608 2768 209
8840 9443 260
9753 9907 242
818 1302 182
4632 5277 210
3333 6595 262
1473 5109 238
8378 9062 247
7665 9278 260
5880 9915 262
2657 5405 238
6368 8420 257
2554 6707 262
6739 7345 257
7511 7968 252
8488 9480 260
3557 7205 262
427 9114 262
6510 7811 257
8021 9456 260
1005 2287 183
3431 7787 262
3657 4257 238
635 5381 238
2385 9391 262
9921 9973 167
3712 9278 262
8477 9207 247
9436 9772 198
9459 9459 61
7366 7448 239
37 9656 262
5296 7245 262
5314 8988 262
9300 9393 198
8056 8224 190
8283 9245 247
8748 9221 247
8186 9542 260
5129 8959 262
3465 6373 262
9759 9767 154
3987 7848 262
6642 9580 260
1776 4494 238
8603 9496 260
3485 6786 262
5363 6837 262
8114 9475 260
169 1869 182
8639 8687 172
5908 7227 262
8173 8546 234
2611 3728 238
7452 8780 252
8994 9322 260
535 5885 238
7640 9637 260
3360 9266 262
4175 5792 236
3525 7939 262
2191 4855 238
433 8490 262
8902 9176 247
714 3087 217
192 894 179
4983 7302 262
2848 9037 262
1865 2058 175
9770 9947 242
2679 4115 238
6629 6904 182
6950 9988 260
9305 9939 242
3174 6558 262
4647 9188 262
9787 9822 198
789 5850 238
3365 6584 262
7908 9833 260
2506 5866 238
2472 8086 262
7924 9637 260
4033 5075 215
2136 5562 238
881 5429 238
9774 9962 242
7714 7902 221
1066 4331 238
8818 9865 260
5767 9313 262
1759 5089 238
9593 9747 185
5285 5453 192
3434 4469 238
1367 7613 262
5951 8464 262
9316 9809 198
9202 9388 260
5534 6899 262
3779 4030 189
8427 8958 216
6323 7509 257
7844 8967 252
8431 9694 260
7614 9739 260
6261 8426 257
2022 5623 238
7491 8829 252
1037 9884 262
2313 4507 238
5022 8827 262
9905 9974 167
2209 4331 238
123 2418 183
6987 7585 239
1100 4935 238
317 1673 182
1077 4733 238
6160 7246 262
3962 4780 215
2126 9873 262
1542 6641 262
7830 9189 252
8267 8811 234
216 2788 209
7320 9545 260
4718 7245 262
6879 7872 257
6598 8898 257
8719 9003 247
4166 4961 215
4721 5785 236
7744 8840 252
3084 8312 262
9071 9951 260
7843 8189 252
8860 9735 260
2811 4361 238
35 7899 262
4955 5740 236
3404 3612 194
1858 5816 238
3924 4545 215
6845 7028 257
2026 3505 217
8909 9628 260
337 8453 262
